{
    "key": "group_5b44c67a1c065",
    "title": "Services Page",
    "fields": [
        {
            "key": "field_55aa415079a89",
            "label": "Banner",
            "name": "banner_services",
            "type": "repeater",
            "instructions": "",
            "required": 0,
            "conditional_logic": 0,
            "wrapper": {
                "width": "",
                "class": "",
                "id": ""
            },
            "row_min": 0,
            "row_limit": 1,
            "layout": "table",
            "button_label": "Add Row",
            "min": 0,
            "max": 0,
            "collapsed": "",
            "sub_fields": [
                {
                    "key": "field_55aa416079a8a",
                    "label": "Banner",
                    "name": "banner_ser",
                    "type": "image",
                    "instructions": "",
                    "required": 0,
                    "conditional_logic": 0,
                    "wrapper": {
                        "width": "",
                        "class": "",
                        "id": ""
                    },
                    "preview_size": "thumbnail",
                    "library": "all",
                    "return_format": "url",
                    "min_width": 0,
                    "min_height": 0,
                    "min_size": 0,
                    "max_width": 0,
                    "max_height": 0,
                    "max_size": 0,
                    "mime_types": ""
                },
                {
                    "key": "field_55aa417779a8b",
                    "label": "Text",
                    "name": "text_ser",
                    "type": "wysiwyg",
                    "instructions": "",
                    "required": 0,
                    "conditional_logic": 0,
                    "wrapper": {
                        "width": "",
                        "class": "",
                        "id": ""
                    },
                    "default_value": "",
                    "toolbar": "full",
                    "media_upload": 1,
                    "tabs": "all",
                    "delay": 0
                }
            ]
        },
        {
            "key": "field_55aa41ab1500e",
            "label": "Services List Section",
            "name": "services_list_section",
            "type": "repeater",
            "instructions": "",
            "required": 0,
            "conditional_logic": 0,
            "wrapper": {
                "width": "",
                "class": "",
                "id": ""
            },
            "row_min": 0,
            "row_limit": 4,
            "layout": "row",
            "button_label": "Add Row",
            "min": 0,
            "max": 0,
            "collapsed": "",
            "sub_fields": [
                {
                    "key": "field_55aa41c91500f",
                    "label": "Heading",
                    "name": "heading_ser",
                    "type": "text",
                    "instructions": "",
                    "required": 0,
                    "conditional_logic": 0,
                    "wrapper": {
                        "width": "",
                        "class": "",
                        "id": ""
                    },
                    "default_value": "",
                    "placeholder": "",
                    "prepend": "",
                    "append": "",
                    "formatting": "html",
                    "maxlength": ""
                },
                {
                    "key": "field_55aa41da15010",
                    "label": "Sub heading",
                    "name": "sub_heading_ser",
                    "type": "textarea",
                    "instructions": "",
                    "required": 0,
                    "conditional_logic": 0,
                    "wrapper": {
                        "width": "",
                        "class": "",
                        "id": ""
                    },
                    "default_value": "",
                    "placeholder": "",
                    "maxlength": "",
                    "rows": "",
                    "new_lines": "br"
                },
                {
                    "key": "field_55aa420d15011",
                    "label": "Content",
                    "name": "content_ser",
                    "type": "textarea",
                    "instructions": "",
                    "required": 0,
                    "conditional_logic": 0,
                    "wrapper": {
                        "width": "",
                        "class": "",
                        "id": ""
                    },
                    "default_value": "",
                    "placeholder": "",
                    "maxlength": "",
                    "rows": "",
                    "new_lines": "br"
                },
                {
                    "key": "field_566090972c1fa",
                    "label": "Content",
                    "name": "ser_content",
                    "type": "wysiwyg",
                    "instructions": "",
                    "required": 0,
                    "conditional_logic": 0,
                    "wrapper": {
                        "width": "",
                        "class": "",
                        "id": ""
                    },
                    "default_value": "",
                    "toolbar": "full",
                    "media_upload": 1,
                    "tabs": "all",
                    "delay": 0
                },
                {
                    "key": "field_55aa423d15014",
                    "label": "Service Icon",
                    "name": "service_icon",
                    "type": "image",
                    "instructions": "",
                    "required": 0,
                    "conditional_logic": 0,
                    "wrapper": {
                        "width": "",
                        "class": "",
                        "id": ""
                    },
                    "preview_size": "thumbnail",
                    "library": "all",
                    "return_format": "url",
                    "min_width": 0,
                    "min_height": 0,
                    "min_size": 0,
                    "max_width": 0,
                    "max_height": 0,
                    "max_size": 0,
                    "mime_types": ""
                }
            ]
        },
        {
            "key": "field_564103c105472",
            "label": "Construction Cost",
            "name": "construction_cost",
            "type": "wysiwyg",
            "instructions": "",
            "required": 0,
            "conditional_logic": 0,
            "wrapper": {
                "width": "",
                "class": "",
                "id": ""
            },
            "default_value": "",
            "toolbar": "full",
            "media_upload": 1,
            "tabs": "all",
            "delay": 0
        },
        {
            "key": "field_564103e43969d",
            "label": "Construction Cost List Section",
            "name": "construction_cost_list_section",
            "type": "repeater",
            "instructions": "",
            "required": 0,
            "conditional_logic": 0,
            "wrapper": {
                "width": "",
                "class": "",
                "id": ""
            },
            "row_min": 0,
            "row_limit": 10,
            "layout": "table",
            "button_label": "Add Row",
            "min": 0,
            "max": 0,
            "collapsed": "",
            "sub_fields": [
                {
                    "key": "field_564103fb3969e",
                    "label": "Heading",
                    "name": "heading_con",
                    "type": "text",
                    "instructions": "",
                    "required": 0,
                    "conditional_logic": 0,
                    "wrapper": {
                        "width": "",
                        "class": "",
                        "id": ""
                    },
                    "default_value": "",
                    "placeholder": "",
                    "prepend": "",
                    "append": "",
                    "formatting": "html",
                    "maxlength": ""
                },
                {
                    "key": "field_5641040f3969f",
                    "label": "Content",
                    "name": "content_con",
                    "type": "textarea",
                    "instructions": "",
                    "required": 0,
                    "conditional_logic": 0,
                    "wrapper": {
                        "width": "",
                        "class": "",
                        "id": ""
                    },
                    "default_value": "",
                    "placeholder": "",
                    "maxlength": "",
                    "rows": "",
                    "new_lines": "br"
                }
            ]
        },
        {
            "key": "field_55aa428f61dbb",
            "label": "Why Wcci?",
            "name": "why_wcci",
            "type": "wysiwyg",
            "instructions": "",
            "required": 0,
            "conditional_logic": 0,
            "wrapper": {
                "width": "",
                "class": "",
                "id": ""
            },
            "default_value": "",
            "toolbar": "full",
            "media_upload": 1,
            "tabs": "all",
            "delay": 0
        },
        {
            "key": "field_569e7efbcfbd1",
            "label": "Background Image Title",
            "name": "background_image_title",
            "type": "text",
            "instructions": "",
            "required": 0,
            "conditional_logic": 0,
            "wrapper": {
                "width": "",
                "class": "",
                "id": ""
            },
            "default_value": "",
            "placeholder": "",
            "prepend": "",
            "append": "",
            "formatting": "html",
            "maxlength": ""
        },
        {
            "key": "field_569e7f60cfbd2",
            "label": "Background Image Credit",
            "name": "background_image_credit",
            "type": "text",
            "instructions": "",
            "required": 0,
            "conditional_logic": 0,
            "wrapper": {
                "width": "",
                "class": "",
                "id": ""
            },
            "default_value": "",
            "placeholder": "",
            "prepend": "",
            "append": "",
            "formatting": "html",
            "maxlength": ""
        }
    ],
    "location": [
        [
            {
                "param": "page_template",
                "operator": "==",
                "value": "page template\/services-page-tpl.php"
            }
        ]
    ],
    "menu_order": 0,
    "position": "normal",
    "style": "default",
    "label_placement": "top",
    "instruction_placement": "label",
    "hide_on_screen": "",
    "active": 1,
    "description": "",
    "modified": 1531245480
}